<?xml version="1.0" encoding="UTF-8" standalone="no"?>
<svg
   xmlns:dc="http://purl.org/dc/elements/1.1/"
   xmlns:cc="http://creativecommons.org/ns#"
   xmlns:rdf="http://www.w3.org/1999/02/22-rdf-syntax-ns#"
   xmlns:svg="http://www.w3.org/2000/svg"
   xmlns="http://www.w3.org/2000/svg"
   xmlns:sodipodi="http://sodipodi.sourceforge.net/DTD/sodipodi-0.dtd"
   xmlns:inkscape="http://www.inkscape.org/namespaces/inkscape"
   width="2000"
   height="200"
   viewBox="0 0 529.16665 52.916668"
   version="1.1"
   id="svg349"
   inkscape:version="1.0.2 (e86c870879, 2021-01-15)"
   sodipodi:docname="green_foxears.svg"
   inkscape:export-filename="/home/h1/Grafik/Logo/logo.png"
   inkscape:export-xdpi="354"
   inkscape:export-ydpi="354">
  <defs
     id="defs343">
    <clipPath
       clipPathUnits="userSpaceOnUse"
       id="clipPath74">
      <path
         d="M 0,0 H 1190.551 V 841.89 H 0 Z"
         id="path72" />
    </clipPath>
    <clipPath
       clipPathUnits="userSpaceOnUse"
       id="clipPath94">
      <path
         d="M 0,0 H 1190.551 V 841.89 H 0 Z"
         id="path92" />
    </clipPath>
    <clipPath
       clipPathUnits="userSpaceOnUse"
       id="clipPath140">
      <path
         d="M 0,0 H 1190.551 V 841.89 H 0 Z"
         id="path138" />
    </clipPath>
  </defs>
  <sodipodi:namedview
     id="base"
     pagecolor="#ffffff"
     bordercolor="#666666"
     borderopacity="1.0"
     inkscape:pageopacity="0.0"
     inkscape:pageshadow="2"
     inkscape:zoom="2.0201457"
     inkscape:cx="1882.3309"
     inkscape:cy="165.07883"
     inkscape:document-units="px"
     inkscape:current-layer="layer1"
     inkscape:document-rotation="0"
     showgrid="true"
     units="px"
     inkscape:window-width="1493"
     inkscape:window-height="1026"
     inkscape:window-x="529"
     inkscape:window-y="82"
     inkscape:window-maximized="1"
     inkscape:pagecheckerboard="0"
     width="2000px">
    <inkscape:grid
       type="xygrid"
       id="grid351"
       dotted="true" />
  </sodipodi:namedview>
  <metadata
     id="metadata346">
    <rdf:RDF>
      <cc:Work
         rdf:about="">
        <dc:format>image/svg+xml</dc:format>
        <dc:type
           rdf:resource="http://purl.org/dc/dcmitype/StillImage" />
      </cc:Work>
    </rdf:RDF>
  </metadata>
  <g
     inkscape:label="Background"
     inkscape:groupmode="layer"
     id="layer1">
    <rect
       style="fill:#004b4b;fill-opacity:1;stroke:none;stroke-width:95.6183"
       id="rect38"
       width="529.16669"
       height="52.916668"
       x="0"
       y="-1.7763568e-15" />
  </g>
  <g
     inkscape:groupmode="layer"
     id="layer2"
     inkscape:label="Logo">
    <path
       inkscape:connector-curvature="0"
       id="path148"
       style="fill:#b07625;fill-opacity:1;fill-rule:nonzero;stroke:none;stroke-width:0.81729791;stroke-miterlimit:4;stroke-dasharray:none;"
       d="m 487.52173,43.536555 c -3.49565,3.440917 -6.3097,7.395656 -8.37097,11.696507 V 35.569991 c 8.09379,-0.40915 15.56079,-3.245856 21.6827,-7.792916 2.23125,1.824535 4.64692,3.398103 7.20526,4.693356 -7.69772,1.631849 -14.78531,5.422447 -20.51699,11.066124 m 0.48193,-34.6863113 c 1.84244,5.8720393 5.036,11.2540503 9.35706,15.7297423 0.13317,0.137977 0.2673,0.274766 0.4024,0.411536 -5.31662,3.766811 -11.70365,6.121813 -18.60576,6.511933 0.2127,-8.6576 3.51587,-16.563506 8.84668,-22.6532065 M 512.89929,-3.339856 c -0.25198,10.229982 -4.81708,19.408541 -11.94031,25.782506 -0.22803,-0.22481 -0.45415,-0.451967 -0.67642,-0.683906 -4.3888,-4.543485 -7.48014,-10.127693 -8.98944,-16.2090673 5.83401,-5.14532089 13.35103,-8.4232912 21.60655,-8.8895346 M 475.08053,55.233065 c -2.06127,-4.300851 -4.87533,-8.255591 -8.37098,-11.696507 -5.73168,-5.643677 -12.81927,-9.434275 -20.51584,-11.066124 2.55719,-1.295253 4.97286,-2.868821 7.20535,-4.693356 6.12066,4.54706 13.58758,7.383763 21.68147,7.792916 z M 441.33266,-3.3398579 c 8.25553,0.4662434 15.77254,3.74421371 21.60645,8.8895346 -1.50806,6.0813743 -4.60054,11.6655823 -8.98818,16.2090673 -0.22324,0.231948 -0.44935,0.459106 -0.67835,0.683906 -7.12333,-6.373965 -11.68822,-15.552524 -11.9403,-25.782506 m 33.74307,34.843311 c -6.90325,-0.390122 -13.29027,-2.745122 -18.6069,-6.511933 0.13605,-0.136779 0.26922,-0.273559 0.40335,-0.411536 4.31982,-4.475692 7.51338,-9.857703 9.35573,-15.7297423 5.3309,6.0897003 8.63387,13.9956073 8.84792,22.6532063 m 42.18073,0.107031 c -4.82301,-1.215563 -9.31893,-3.425458 -13.22493,-6.475064 7.94758,-7.290988 12.93941,-17.7588504 12.93941,-29.36853 0,-0.4079617 -0.004,-0.8194875 -0.0192,-1.225076 v -2.0005646 l -2.03157,0.00119 C 497.34069,-7.4492271 482.38647,4.0046307 477.11507,19.837851 471.84251,4.0046307 456.88819,-7.4492387 439.30895,-7.4575646 h -2.03032 v 1.9993727 c -0.0192,0.4055856 -0.0192,0.8171115 -0.0192,1.2250761 0,11.6096805 4.99193,22.0775418 12.93942,29.3685288 -3.90476,3.049606 -8.40182,5.259505 -13.22368,6.475065 l -1.9577,0.506675 0.86805,3.503958 h 1.58786 c 9.93624,0 19.30747,3.838177 26.38548,10.809217 7.07102,6.961528 11.0555,16.254269 11.21963,26.166673 l 2.03626,-0.01628 2.03501,0.01628 c 0.16385,-9.912404 4.1486,-19.205145 11.21953,-26.166673 7.07925,-6.97104 16.44934,-10.809217 26.38558,-10.809217 l 1.59141,-0.01197 0.86805,-3.503959 z" />
  </g>
</svg>
