<?xml version="1.0" encoding="UTF-8" standalone="no"?>
<svg
   xmlns:dc="http://purl.org/dc/elements/1.1/"
   xmlns:cc="http://creativecommons.org/ns#"
   xmlns:rdf="http://www.w3.org/1999/02/22-rdf-syntax-ns#"
   xmlns:svg="http://www.w3.org/2000/svg"
   xmlns="http://www.w3.org/2000/svg"
   xmlns:sodipodi="http://sodipodi.sourceforge.net/DTD/sodipodi-0.dtd"
   xmlns:inkscape="http://www.inkscape.org/namespaces/inkscape"
   width="2000"
   height="200"
   viewBox="0 0 529.16665 52.916668"
   version="1.1"
   id="svg349"
   inkscape:version="1.0.2 (e86c870879, 2021-01-15)"
   sodipodi:docname="light_plain.svg"
   inkscape:export-filename="/home/h1/Grafik/Logo/logo.png"
   inkscape:export-xdpi="354"
   inkscape:export-ydpi="354">
  <defs
     id="defs343">
    <clipPath
       clipPathUnits="userSpaceOnUse"
       id="clipPath74">
      <path
         d="M 0,0 H 1190.551 V 841.89 H 0 Z"
         id="path72" />
    </clipPath>
    <clipPath
       clipPathUnits="userSpaceOnUse"
       id="clipPath94">
      <path
         d="M 0,0 H 1190.551 V 841.89 H 0 Z"
         id="path92" />
    </clipPath>
    <clipPath
       clipPathUnits="userSpaceOnUse"
       id="clipPath140">
      <path
         d="M 0,0 H 1190.551 V 841.89 H 0 Z"
         id="path138" />
    </clipPath>
  </defs>
  <sodipodi:namedview
     id="base"
     pagecolor="#ffffff"
     bordercolor="#666666"
     borderopacity="1.0"
     inkscape:pageopacity="0.0"
     inkscape:pageshadow="2"
     inkscape:zoom="2.0201457"
     inkscape:cx="1882.3309"
     inkscape:cy="165.07883"
     inkscape:document-units="px"
     inkscape:current-layer="layer2"
     inkscape:document-rotation="0"
     showgrid="true"
     units="px"
     inkscape:window-width="760"
     inkscape:window-height="232"
     inkscape:window-x="1152"
     inkscape:window-y="289"
     inkscape:window-maximized="1"
     inkscape:pagecheckerboard="0"
     width="2000px">
    <inkscape:grid
       type="xygrid"
       id="grid351"
       dotted="true" />
  </sodipodi:namedview>
  <metadata
     id="metadata346">
    <rdf:RDF>
      <cc:Work
         rdf:about="">
        <dc:format>image/svg+xml</dc:format>
        <dc:type
           rdf:resource="http://purl.org/dc/dcmitype/StillImage" />
      </cc:Work>
    </rdf:RDF>
  </metadata>
  <g
     inkscape:label="Background"
     inkscape:groupmode="layer"
     id="layer1">
    <rect
       style="fill:#dcd7cd;fill-opacity:1;stroke:none;stroke-width:95.6183"
       id="rect38"
       width="529.16669"
       height="52.916668"
       x="0"
       y="-1.7763568e-15" />
  </g>
  <g
     inkscape:groupmode="layer"
     id="layer2"
     inkscape:label="Logo" />
</svg>
